
strategic_region={
	id=142
	name="STRATEGICREGION_142"
	provinces={
		1073 1157 1185 1244 1248 1253 1285 1300 1302 1315 1324 1328 1353 1357 1362 1374 1385 1390 1396 1400 1403 1423 1427 1464 1488 1507 1520 1535 1548 1563 1577 1592 1605 1607 1620 1990 4075 4119 4175 4223 4251 4255 4260 4284 4293 4302 4319 4330 4334 4336 4339 4341 4348 4359 4363 4379 4397 4401 4405 4408 4433 4496 4511 4529 4539 4554 4566 4568 4582 4596 4613 4639 4654 5236 7015 7075 7093 7103 7218 7225 7229 7238 7271 7280 7292 7295 7303 7312 7319 7331 7338 7347 7353 7356 7367 7376 7380 7404 7408 7426 7432 7441 7492 7516 7518 7531 7544 7559 7572 7587 7601 7603 7645 7647 7675 7974 8045 9948 9961 9988 10016 10075 10103 10129 10134 10137 10162 10177 10180 10193 10195 10204 10221 10232 10238 10250 10261 10289 10293 10309 10317 10326 10330 10356 10371 10384 10398 10411 10425 10438 10453 10456 10467 10496 11909 11936 12008 12048 12065 12075 12109 12125 12133 12150 12167 12173 12176 12191 12195 12204 12210 12224 12232 12238 12260 12264 12288 12297 12317 12332 12345 12360 12373 12388 12402 12417 12431 12433 12447 12460 12475 
	}
	weather={
		period={
			between={ 0.0 30.0 }
			temperature={ 27.0 28.0 }
			temperature_day_night={ 10.0 -10.0 }
			no_phenomenon=0.920
			rain_light=0.060
			rain_heavy=0.020
			snow=0.000
			blizzard=0.000
			arctic_water=0.000
			mud=0.500
			sandstorm=0.000
			min_snow_level=0.000
		}
		period={
			between={ 0.1 27.1 }
			temperature={ 28.0 29.0 }
			temperature_day_night={ 10.0 -10.0 }
			no_phenomenon=0.900
			rain_light=0.050
			rain_heavy=0.050
			snow=0.000
			blizzard=0.000
			arctic_water=0.000
			mud=0.500
			sandstorm=0.000
			min_snow_level=0.000
		}
		period={
			between={ 0.2 30.2 }
			temperature={ 29.0 30.0 }
			temperature_day_night={ 10.0 -10.0 }
			no_phenomenon=0.800
			rain_light=0.080
			rain_heavy=0.120
			snow=0.000
			blizzard=0.000
			arctic_water=0.000
			mud=0.500
			sandstorm=0.000
			min_snow_level=0.000
		}
		period={
			between={ 0.3 29.3 }
			temperature={ 30.0 31.0 }
			temperature_day_night={ 10.0 -10.0 }
			no_phenomenon=0.700
			rain_light=0.050
			rain_heavy=0.250
			snow=0.000
			blizzard=0.000
			arctic_water=0.000
			mud=0.500
			sandstorm=0.000
			min_snow_level=0.000
		}
		period={
			between={ 0.4 30.4 }
			temperature={ 28.0 29.0 }
			temperature_day_night={ 10.0 -10.0 }
			no_phenomenon=0.400
			rain_light=0.100
			rain_heavy=0.500
			snow=0.000
			blizzard=0.000
			arctic_water=0.000
			mud=0.500
			sandstorm=0.000
			min_snow_level=0.000
		}
		period={
			between={ 0.5 29.5 }
			temperature={ 28.0 29.0 }
			temperature_day_night={ 10.0 -10.0 }
			no_phenomenon=0.350
			rain_light=0.150
			rain_heavy=0.500
			snow=0.000
			blizzard=0.000
			arctic_water=0.000
			mud=0.500
			sandstorm=0.000
			min_snow_level=0.000
		}
		period={
			between={ 0.6 30.6 }
			temperature={ 28.0 29.0 }
			temperature_day_night={ 8.0 -8.0 }
			no_phenomenon=0.300
			rain_light=0.150
			rain_heavy=0.550
			snow=0.000
			blizzard=0.000
			arctic_water=0.000
			mud=0.500
			sandstorm=0.000
			min_snow_level=0.000
		}
		period={
			between={ 0.7 30.7 }
			temperature={ 28.0 29.0 }
			temperature_day_night={ 8.0 -8.0 }
			no_phenomenon=0.250
			rain_light=0.200
			rain_heavy=0.550
			snow=0.000
			blizzard=0.000
			arctic_water=0.000
			mud=0.500
			sandstorm=0.000
			min_snow_level=0.000
		}
		period={
			between={ 0.8 29.8 }
			temperature={ 27.0 28.0 }
			temperature_day_night={ 8.0 -8.0 }
			no_phenomenon=0.200
			rain_light=0.200
			rain_heavy=0.600
			snow=0.000
			blizzard=0.000
			arctic_water=0.000
			mud=0.500
			sandstorm=0.000
			min_snow_level=0.000
		}
		period={
			between={ 0.9 30.9 }
			temperature={ 26.0 27.0 }
			temperature_day_night={ 8.0 -8.0 }
			no_phenomenon=0.400
			rain_light=0.200
			rain_heavy=0.400
			snow=0.000
			blizzard=0.000
			arctic_water=0.000
			mud=0.500
			sandstorm=0.000
			min_snow_level=0.000
		}
		period={
			between={ 0.10 29.10 }
			temperature={ 26.0 28.0 }
			temperature_day_night={ 9.0 -9.0 }
			no_phenomenon=0.800
			rain_light=0.100
			rain_heavy=0.100
			snow=0.000
			blizzard=0.000
			arctic_water=0.000
			mud=0.500
			sandstorm=0.000
			min_snow_level=0.000
		}
		period={
			between={ 0.11 30.11 }
			temperature={ 26.0 27.0 }
			temperature_day_night={ 10.0 -10.0 }
			no_phenomenon=0.092
			rain_light=0.060
			rain_heavy=0.020
			snow=0.000
			blizzard=0.000
			arctic_water=0.000
			mud=0.500
			sandstorm=0.000
			min_snow_level=0.000
		}
		period={
			between={ 4.11 21.11 }
			temperature={ -10.0 35.0 }
			temperature_day_night={ 2.0 -2.0 }
			no_phenomenon=1.500
			rain_light=0.250
			rain_heavy=0.100
			snow=0.000
			blizzard=0.000
			arctic_water=0.000
			mud=0.000
			sandstorm=0.000
			min_snow_level=0.000
		}
	}
}
