
strategic_region={
	id=146
	name="STRATEGICREGION_146"
	provinces={
		1910 1943 1961 1970 1991 2010 2014 2041 2084 2093 2098 4386 4900 4973 4987 4994 5011 5033 5042 5087 5094 5310 7273 7316 7374 7926 8005 8029 8068 8112 8121 10315 10755 10802 10821 10825 10905 10910 10911 10918 12754 12784 12801 12807 12884 12892 
	}
	weather={
		period={
			between={ 0.0 30.0 }
			temperature={ -14.0 -10.0 }
			temperature_day_night={ 12.0 -12.0 }
			no_phenomenon=0.250
			rain_light=0.050
			rain_heavy=0.000
			snow=0.200
			blizzard=0.100
			arctic_water=0.000
			mud=0.000
			sandstorm=0.000
			min_snow_level=0.100
		}
		period={
			between={ 0.1 27.1 }
			temperature={ -14.0 -8.0 }
			temperature_day_night={ 12.0 -12.0 }
			no_phenomenon=0.600
			rain_light=0.100
			rain_heavy=0.000
			snow=0.200
			blizzard=0.000
			arctic_water=0.000
			mud=0.000
			sandstorm=0.000
			min_snow_level=0.050
		}
		period={
			between={ 0.2 30.2 }
			temperature={ -10.0 0.0 }
			temperature_day_night={ 12.0 -12.0 }
			no_phenomenon=0.800
			rain_light=0.050
			rain_heavy=0.150
			snow=0.000
			blizzard=0.000
			arctic_water=0.000
			mud=0.000
			sandstorm=0.000
			min_snow_level=0.010
		}
		period={
			between={ 0.3 29.3 }
			temperature={ -8.0 0.0 }
			temperature_day_night={ 12.0 -12.0 }
			no_phenomenon=0.700
			rain_light=0.050
			rain_heavy=0.250
			snow=0.000
			blizzard=0.000
			arctic_water=0.000
			mud=0.000
			sandstorm=0.000
			min_snow_level=0.010
		}
		period={
			between={ 0.4 30.4 }
			temperature={ -8.0 8.0 }
			temperature_day_night={ 9.0 -9.0 }
			no_phenomenon=0.600
			rain_light=0.150
			rain_heavy=0.250
			snow=0.000
			blizzard=0.000
			arctic_water=0.000
			mud=0.000
			sandstorm=0.000
			min_snow_level=0.010
		}
		period={
			between={ 0.5 29.5 }
			temperature={ -5.0 10.0 }
			temperature_day_night={ 7.0 -7.0 }
			no_phenomenon=0.400
			rain_light=0.100
			rain_heavy=0.500
			snow=0.000
			blizzard=0.000
			arctic_water=0.000
			mud=0.000
			sandstorm=0.000
			min_snow_level=0.010
		}
		period={
			between={ 0.6 30.6 }
			temperature={ -3.0 10.0 }
			temperature_day_night={ 7.0 -7.0 }
			no_phenomenon=0.150
			rain_light=0.350
			rain_heavy=0.500
			snow=0.000
			blizzard=0.000
			arctic_water=0.000
			mud=0.000
			sandstorm=0.000
			min_snow_level=0.010
		}
		period={
			between={ 0.7 30.7 }
			temperature={ 0.0 12.0 }
			temperature_day_night={ 7.0 -7.0 }
			no_phenomenon=0.150
			rain_light=0.350
			rain_heavy=0.500
			snow=0.000
			blizzard=0.000
			arctic_water=0.000
			mud=0.000
			sandstorm=0.000
			min_snow_level=0.010
		}
		period={
			between={ 0.8 29.8 }
			temperature={ -2.0 10.0 }
			temperature_day_night={ 7.0 -7.0 }
			no_phenomenon=0.400
			rain_light=0.200
			rain_heavy=0.400
			snow=0.000
			blizzard=0.000
			arctic_water=0.000
			mud=0.000
			sandstorm=0.000
			min_snow_level=0.010
		}
		period={
			between={ 0.9 30.9 }
			temperature={ -5.0 5.0 }
			temperature_day_night={ 10.0 -10.0 }
			no_phenomenon=0.700
			rain_light=0.100
			rain_heavy=0.200
			snow=0.000
			blizzard=0.000
			arctic_water=0.000
			mud=0.000
			sandstorm=0.000
			min_snow_level=0.010
		}
		period={
			between={ 0.10 29.10 }
			temperature={ -14.0 0.0 }
			temperature_day_night={ 10.0 -10.0 }
			no_phenomenon=0.350
			rain_light=0.000
			rain_heavy=0.050
			snow=0.200
			blizzard=0.100
			arctic_water=0.000
			mud=0.000
			sandstorm=0.000
			min_snow_level=0.010
		}
		period={
			between={ 0.11 30.11 }
			temperature={ -14.0 -2.0 }
			temperature_day_night={ 12.0 -12.0 }
			no_phenomenon=0.280
			rain_light=0.020
			rain_heavy=0.000
			snow=0.200
			blizzard=0.100
			arctic_water=0.000
			mud=0.000
			sandstorm=0.000
			min_snow_level=0.050
		}
		period={
			between={ 4.11 21.11 }
			temperature={ -10.0 35.0 }
			temperature_day_night={ 2.0 -2.0 }
			no_phenomenon=1.500
			rain_light=0.250
			rain_heavy=0.100
			snow=0.000
			blizzard=0.000
			arctic_water=0.000
			mud=0.000
			sandstorm=0.000
			min_snow_level=0.000
		}
	}
}
