strategic_region={
	id=212
	name="STRATEGICREGION_212"
	provinces={
		917 1712 1872 2407 2947 2976 3606 3691 3800 4272 4678 4695 5239 5403 6779 7348 7696 7766 7813 7830 7858 7869 7891 7901 8653 8962 10527 10585 10703 10721 12508 12534 13075 13167 13168 13183 13185 13187 13188 13189 13190 13191 13192 
	}
	weather={
	}
}
