
state={
	id=279
	name="STATE_279"
	resources={
		steel=16.000
	}

	history={
		owner = EOH
		buildings = {
			infrastructure = 5
			arms_factory = 1
			industrial_complex = 7
			air_base = 3
			8222 = {
				naval_base = 5

			}
			5121 = {
				naval_base = 1

			}
			650 = {
				bunker = 1

			}

		}
		add_core_of = EOH
		victory_points = {
			650 10 
		}

	}

	provinces={
		5191 8194 
	}
	manpower=3935146
	buildings_max_level_factor=1.000
	state_category=large_city
}
