
state={
	id=280
	name="STATE_280"

	history={
		owner = AZP
		buildings = {
			infrastructure = 1

		}
		add_core_of = AZP

	}

	provinces={
		2111 2142 2147 2204 8175 11010 12939 
	}
	manpower=120000
	buildings_max_level_factor=1.000
	state_category=pastoral
}
