
state={
	id=287
	name="STATE_287"

	history={
		owner = HIM
		add_core_of = HIM
		buildings = {
			infrastructure = 1

		}

	}

	provinces={
		8042 8086 10885 12864 
	}
	manpower=408000
	buildings_max_level_factor=1.000
	state_category=wasteland
}
