
state={
	id=303
	name="STATE_303" # Lima
	manpower = 3563249
	resources={
		oil=14 # was: 18
	}
	
	state_category = large_city

	history={
		owner = SIN
		buildings = {
			infrastructure = 3
			arms_factory = 1
			industrial_complex = 6
			air_base = 3
			12997 = {
				naval_base = 5
			}
		}
		add_core_of = SIN
		victory_points = {
			12997 5 
		}

	}

	provinces={
		2156 2162 5190 8199 12969 12983 12997 
	}
}
