
state={
	id=307
	name="STATE_307" # Miranda
	
	state_category = city
	
	manpower = 1335010
	resources={
		oil=41 # was: 58
	}

	history={
		owner = PRD
		buildings = {
			infrastructure = 4
			arms_factory = 1
			industrial_complex = 5
			air_base = 2
			8113 = {
				naval_base = 3
			}
			10912 = {
				naval_base = 2
			}
		}
		add_core_of = PRD
		victory_points = {
			8113 5 
		}

	}

	provinces={
		4942 7968 8024 8080 8113 10767 10823 10912 5056 4892 5000
	}
}
