state=
{
	id=311
	name="STATE_311"
	manpower = 51000
	
	state_category = pastoral
	history=
	{
		add_core_of = SAE
		owner = SAE
		victory_points = {
			2077 1 
		}
		buildings = {
			infrastructure = 4
			2077 = {
				naval_base = 1
			}
		}
	}
	provinces= { 2077 }
}
