
state={
	id=321
	name="STATE_321"
	manpower = 533952

	state_category = enclave

	history={
		owner = IDI
		add_core_of = IDI
		victory_points = {
			1273 1 
		}
		buildings = {
			infrastructure = 5
			1273 ={
				naval_base = 1
			}
		}
	}

	provinces={
		1273 
	}
}
