
state={
	id=331
	name="STATE_331"
	manpower = 255060
	
	state_category = rural

	history={
		owner = UNE
		buildings = {
			infrastructure = 3
			industrial_complex = 1
			12505 = {
				naval_base = 1
			}
		}
		add_core_of = UNE
	}

	provinces={
		7758 7788 12505 12680 12698 
	}
}
