
state={
	id=348
	name="STATE_348"

	history={
		owner = TUR
		victory_points = {
			3870 1 
		}
		buildings = {
			infrastructure = 3

		}
		add_core_of = TUR

	}

	provinces={
		869 961 3807 3862 3870 9830 9861 11844 
	}
	manpower=858452
	buildings_max_level_factor=1.000
	state_category=rural
}
