
state={
	id=418
	name="STATE_418"
	manpower = 332362
	
	state_category = wasteland

	history={
		owner = IRN
		buildings = {
			infrastructure = 1
		}
		add_core_of = IRN
	}

	provinces={
		8009 8093 10873 11671 12704 12748 12818 
	}
}
