
state={
	id=421
	name="STATE_421"

	history={
		owner = IRN
		buildings = {
			infrastructure = 3

		}
		add_core_of = IRN

	}

	provinces={
		829 5050 5098 10774 12773 
	}
	manpower=780278
	buildings_max_level_factor=1.000
	state_category=rural
}
