
state={
	id=434
	name="STATE_434"
	manpower = 200000
	
	state_category = wasteland
	resources={
		# tungsten=49 # was: 54
	}

	history={
		owner = IDI
		add_core_of = IDI
		buildings = {
			infrastructure = 1
		}

	}

	provinces={
		1116 1996 10810 12322 12730 
	}
}
