state={
	id=435
	name="STATE_435"

	history={
		owner = IDI
		add_core_of = IDI
		victory_points = {
			4516 1 
		}
		buildings = {
			infrastructure = 5

		}

	}

	provinces={
		1444 1541 1569 1637 4459 4516 4544 4571 7334 10358 10361 10471 10751 10878 12035 12307 12452 
	}
	manpower=36574500
	buildings_max_level_factor=1.000
	state_category=rural
}
