
state={
	id=436
	name="STATE_436" # Jabalpur
	manpower = 14123100
	
	state_category = rural
	
	resources={
		chromium=4 # was: 6
	}

	history={
		owner = IDI
		add_core_of = IDI
		buildings = {
			infrastructure = 4
		}

	}

	provinces={
		1510 4557 4883 4950 4953 7430 7497 7574 7619 8120 10030 10401 10801 10872 12375 12420 12480 12781 12799 12854 
	}
}
