
state={
	id=441
	name="STATE_441"

	history={
		owner = PAS
		add_core_of = PAS
		buildings = {
			infrastructure = 2

		}

	}

	provinces={
		1970 4973 5042 5087 7273 7316 8005 8112 10905 12754 12884 
	}
	manpower=2123700
	buildings_max_level_factor=1.000
	state_category=rural
}
