
state={
	id=486
	name="STATE_486"

	history={
		owner = PRD
		buildings = {
			infrastructure = 1

		}
		add_core_of = PRD

	}

	provinces={
		1887 5026 10792 
	}
	manpower=213160
	buildings_max_level_factor=1.000
	state_category=pastoral
}
