
state={
	id=489
	name="STATE_489" # Zulia
	manpower = 1576373
	
	state_category = town
	
	resources={
		oil=35 # was: 126
	}

	history={
		owner = PRD
		buildings = {
			infrastructure = 4
			industrial_complex = 2
			1944 = {
				naval_base = 5
			}
		}
		add_core_of = PRD
		victory_points = {
			1944 1 
		}

	}

	provinces={
		1944 1997 2052 4526 5088 10855 12772 
	}
}
