
state={
	id=494
	name="STATE_494"

	history={
		owner = SIN
		buildings = {
			infrastructure = 3

		}
		add_core_of = SIN

	}

	provinces={
		2212 2226 
	}
	manpower=735826
	buildings_max_level_factor=1.000
	state_category=rural
}
