
state={
	id=505
	name="STATE_505"

	history={
		owner = BRZ
		buildings = {
			infrastructure = 2

		}
		add_core_of = BRZ

	}

	provinces={
		2181 5115 5148 5151 5208 8140 10959 12959 12987 
	}
	manpower=1662200
	buildings_max_level_factor=1.000
	state_category=rural
}
