
state={
	id=534
	name="STATE_534" # Hokuriku
	manpower = 1933000
	
	state_category = city

	history={
		owner = FSJ
		add_core_of = FSJ
		buildings = {
			infrastructure = 4
			arms_factory = 2
			industrial_complex = 2
			fuel_silo = 1
		}
		
		victory_points = {
			1117 10
		}


	}

	provinces={
		1117 9952 10128 11930 11989 12007 
	}
}
