state={
	id=591
	name="STATE_591"
	manpower = 4350000
	state_category = town

	history={
		owner = XHD
		add_core_of = XHD
		
		victory_points = {
			1070 1 
		}
		
		buildings = {
			infrastructure = 2
			air_base = 1
			1070 = {
				naval_base = 2
			}

		}

	}

	provinces={
		994 1038 1070 4160 7135 11963 11990 
	}
}