
state={
	id=611
	name="STATE_611" # South Chahar
	manpower = 1470000
	
	state_category = pastoral

	history={
		owner = SME
		add_core_of = SME
		buildings = {
			infrastructure = 3
			industrial_complex = 1
		}
		victory_points = {
			11752 3
		}
	}

	provinces={
		828 952 1137 1489 1590 4495 4612 6904 7545 7674 9776 10397 11752 
	}
}
