
state={
	id=616
	name="STATE_616"

	history={
		owner = XHD
		add_core_of = XHD
		buildings = {
			infrastructure = 2

		}

	}

	provinces={
		2053 2099 3742 5031 5057 5100 7511 8055 8081 8127 10724 10750 12327 12750 12776 13146 
	}
	manpower=2077600
	buildings_max_level_factor=1.000
	state_category=pastoral
}
