
state={
	id=643
	name="STATE_643"
	manpower=493
	state_category = small_island

	history={
		owner = EOH
		add_core_of = EOH
		buildings = {
			infrastructure = 3
			13056 = {
				naval_base = 1
			}
			13054 = {
				naval_base = 1
			}
		}

	}

	provinces={
		13054 13055 13056 13057 
	}
}
