state={
	id=682
	name="STATE_682"
	
	state_category = rural
	
	resources={
		steel=8 # was: 12.000
		aluminium=9 # was: 14.000
	}

	history={
		owner = TMN
		buildings = {
			infrastructure = 5
			industrial_complex = 1

		}
		add_core_of = TMN

	}

	provinces={
		602 777 1299 1769 1782 4775 4784 4869 4875 6510 7366 7794 7899 9467 9480 9740 10621 10718 11571 12278 12582 12701 13094 13159 13161 
	}
	manpower=149059
	buildings_max_level_factor=1.000
}
