state={
	id=746
	name="STATE_746"
	provinces={
		1959 3427 4960 4986 10451 10854 12706 
	}
	state_category = pastoral
	
	
	history=
	{
		owner = XHD
		add_core_of = XHD
		
		buildings = {
			infrastructure = 2
		}

	}
	manpower=500000
	buildings_max_level_factor=1.000
}
