state={
	id=748
	name="STATE_748"
	provinces={
		1010 4141 4325 4431 9939 10763 11972 
	}
	history={
		owner = XHD
		add_core_of = XHD
		buildings = {
			infrastructure = 2

		}
		victory_points = {
			1010 3
		}

	}
	manpower=1500000
	state_category=pastoral
	buildings_max_level_factor=1.000
}
