state={
	id=787
	name="STATE_787" # Northern Kashmir
	manpower = 1415800
	
	state_category = rural

	history={
		victory_points = {
			1910 1
		}
		owner = PAS
		buildings = {
			infrastructure = 2
		}
		add_core_of = PAS

	}

	provinces={
		1910 2041 2084 10821 
	}
}